%YAML 1.1
%TAG !u! tag:unity3d.com,2011:
--- !u!1 &4240656320224746458
GameObject:
  m_ObjectHideFlags: 0
  m_CorrespondingSourceObject: {fileID: 0}
  m_PrefabInstance: {fileID: 0}
  m_PrefabAsset: {fileID: 0}
  serializedVersion: 6
  m_Component:
  - component: {fileID: 4770446625909059624}
  - component: {fileID: 1827090918249624952}
  m_Layer: 0
  m_Name: PlatformPalette
  m_TagString: Untagged
  m_Icon: {fileID: 0}
  m_NavMeshLayer: 0
  m_StaticEditorFlags: 0
  m_IsActive: 1
--- !u!4 &4770446625909059624
Transform:
  m_ObjectHideFlags: 0
  m_CorrespondingSourceObject: {fileID: 0}
  m_PrefabInstance: {fileID: 0}
  m_PrefabAsset: {fileID: 0}
  m_GameObject: {fileID: 4240656320224746458}
  m_LocalRotation: {x: 0, y: 0, z: 0, w: 1}
  m_LocalPosition: {x: 0, y: 0, z: 0}
  m_LocalScale: {x: 1, y: 1, z: 1}
  m_ConstrainProportionsScale: 0
  m_Children:
  - {fileID: 7269588016680947096}
  m_Father: {fileID: 0}
  m_RootOrder: 0
  m_LocalEulerAnglesHint: {x: 0, y: 0, z: 0}
--- !u!156049354 &1827090918249624952
Grid:
  m_ObjectHideFlags: 0
  m_CorrespondingSourceObject: {fileID: 0}
  m_PrefabInstance: {fileID: 0}
  m_PrefabAsset: {fileID: 0}
  m_GameObject: {fileID: 4240656320224746458}
  m_Enabled: 1
  m_CellSize: {x: 2.4, y: 1.68, z: 0}
  m_CellGap: {x: 0, y: 0, z: 0}
  m_CellLayout: 0
  m_CellSwizzle: 0
--- !u!1 &6986518651989242356
GameObject:
  m_ObjectHideFlags: 0
  m_CorrespondingSourceObject: {fileID: 0}
  m_PrefabInstance: {fileID: 0}
  m_PrefabAsset: {fileID: 0}
  serializedVersion: 6
  m_Component:
  - component: {fileID: 7269588016680947096}
  - component: {fileID: 5603881004624715336}
  - component: {fileID: 3943290205108580942}
  m_Layer: 0
  m_Name: Layer1
  m_TagString: Untagged
  m_Icon: {fileID: 0}
  m_NavMeshLayer: 0
  m_StaticEditorFlags: 0
  m_IsActive: 1
--- !u!4 &7269588016680947096
Transform:
  m_ObjectHideFlags: 0
  m_CorrespondingSourceObject: {fileID: 0}
  m_PrefabInstance: {fileID: 0}
  m_PrefabAsset: {fileID: 0}
  m_GameObject: {fileID: 6986518651989242356}
  m_LocalRotation: {x: -0, y: -0, z: -0, w: 1}
  m_LocalPosition: {x: 0, y: 0, z: 0}
  m_LocalScale: {x: 1, y: 1, z: 1}
  m_ConstrainProportionsScale: 0
  m_Children: []
  m_Father: {fileID: 4770446625909059624}
  m_RootOrder: 0
  m_LocalEulerAnglesHint: {x: 0, y: 0, z: 0}
--- !u!1839735485 &5603881004624715336
Tilemap:
  m_ObjectHideFlags: 0
  m_CorrespondingSourceObject: {fileID: 0}
  m_PrefabInstance: {fileID: 0}
  m_PrefabAsset: {fileID: 0}
  m_GameObject: {fileID: 6986518651989242356}
  m_Enabled: 1
  m_Tiles:
  - first: {x: 9, y: -13, z: 0}
    second:
      serializedVersion: 2
      m_TileIndex: 22
      m_TileSpriteIndex: 22
      m_TileMatrixIndex: 0
      m_TileColorIndex: 0
      m_TileObjectToInstantiateIndex: 65535
      dummyAlignment: 0
      m_AllTileFlags: 1073741825
  - first: {x: 1, y: -12, z: 0}
    second:
      serializedVersion: 2
      m_TileIndex: 18
      m_TileSpriteIndex: 18
      m_TileMatrixIndex: 1
      m_TileColorIndex: 0
      m_TileObjectToInstantiateIndex: 65535
      dummyAlignment: 0
      m_AllTileFlags: 1073741825
  - first: {x: 5, y: -11, z: 0}
    second:
      serializedVersion: 2
      m_TileIndex: 21
      m_TileSpriteIndex: 21
      m_TileMatrixIndex: 2
      m_TileColorIndex: 0
      m_TileObjectToInstantiateIndex: 65535
      dummyAlignment: 0
      m_AllTileFlags: 1073741825
  - first: {x: 2, y: -10, z: 0}
    second:
      serializedVersion: 2
      m_TileIndex: 23
      m_TileSpriteIndex: 23
      m_TileMatrixIndex: 2
      m_TileColorIndex: 0
      m_TileObjectToInstantiateIndex: 65535
      dummyAlignment: 0
      m_AllTileFlags: 1073741825
  - first: {x: 12, y: -10, z: 0}
    second:
      serializedVersion: 2
      m_TileIndex: 19
      m_TileSpriteIndex: 19
      m_TileMatrixIndex: 1
      m_TileColorIndex: 0
      m_TileObjectToInstantiateIndex: 65535
      dummyAlignment: 0
      m_AllTileFlags: 1073741825
  - first: {x: 14, y: -10, z: 0}
    second:
      serializedVersion: 2
      m_TileIndex: 20
      m_TileSpriteIndex: 20
      m_TileMatrixIndex: 3
      m_TileColorIndex: 0
      m_TileObjectToInstantiateIndex: 65535
      dummyAlignment: 0
      m_AllTileFlags: 1073741825
  - first: {x: 5, y: -9, z: 0}
    second:
      serializedVersion: 2
      m_TileIndex: 17
      m_TileSpriteIndex: 17
      m_TileMatrixIndex: 2
      m_TileColorIndex: 0
      m_TileObjectToInstantiateIndex: 65535
      dummyAlignment: 0
      m_AllTileFlags: 1073741825
  - first: {x: 1, y: -8, z: 0}
    second:
      serializedVersion: 2
      m_TileIndex: 13
      m_TileSpriteIndex: 13
      m_TileMatrixIndex: 0
      m_TileColorIndex: 0
      m_TileObjectToInstantiateIndex: 65535
      dummyAlignment: 0
      m_AllTileFlags: 1073741825
  - first: {x: 9, y: -8, z: 0}
    second:
      serializedVersion: 2
      m_TileIndex: 9
      m_TileSpriteIndex: 9
      m_TileMatrixIndex: 1
      m_TileColorIndex: 0
      m_TileObjectToInstantiateIndex: 65535
      dummyAlignment: 0
      m_AllTileFlags: 1073741825
  - first: {x: 12, y: -8, z: 0}
    second:
      serializedVersion: 2
      m_TileIndex: 15
      m_TileSpriteIndex: 15
      m_TileMatrixIndex: 1
      m_TileColorIndex: 0
      m_TileObjectToInstantiateIndex: 65535
      dummyAlignment: 0
      m_AllTileFlags: 1073741825
  - first: {x: 15, y: -8, z: 0}
    second:
      serializedVersion: 2
      m_TileIndex: 16
      m_TileSpriteIndex: 16
      m_TileMatrixIndex: 1
      m_TileColorIndex: 0
      m_TileObjectToInstantiateIndex: 65535
      dummyAlignment: 0
      m_AllTileFlags: 1073741825
  - first: {x: 18, y: -8, z: 0}
    second:
      serializedVersion: 2
      m_TileIndex: 12
      m_TileSpriteIndex: 12
      m_TileMatrixIndex: 1
      m_TileColorIndex: 0
      m_TileObjectToInstantiateIndex: 65535
      dummyAlignment: 0
      m_AllTileFlags: 1073741825
  - first: {x: 5, y: -7, z: 0}
    second:
      serializedVersion: 2
      m_TileIndex: 14
      m_TileSpriteIndex: 14
      m_TileMatrixIndex: 2
      m_TileColorIndex: 0
      m_TileObjectToInstantiateIndex: 65535
      dummyAlignment: 0
      m_AllTileFlags: 1073741825
  - first: {x: 12, y: -6, z: 0}
    second:
      serializedVersion: 2
      m_TileIndex: 10
      m_TileSpriteIndex: 10
      m_TileMatrixIndex: 1
      m_TileColorIndex: 0
      m_TileObjectToInstantiateIndex: 65535
      dummyAlignment: 0
      m_AllTileFlags: 1073741825
  - first: {x: 1, y: -5, z: 0}
    second:
      serializedVersion: 2
      m_TileIndex: 8
      m_TileSpriteIndex: 8
      m_TileMatrixIndex: 0
      m_TileColorIndex: 0
      m_TileObjectToInstantiateIndex: 65535
      dummyAlignment: 0
      m_AllTileFlags: 1073741825
  - first: {x: 14, y: -5, z: 0}
    second:
      serializedVersion: 2
      m_TileIndex: 11
      m_TileSpriteIndex: 11
      m_TileMatrixIndex: 3
      m_TileColorIndex: 0
      m_TileObjectToInstantiateIndex: 65535
      dummyAlignment: 0
      m_AllTileFlags: 1073741825
  - first: {x: 5, y: -3, z: 0}
    second:
      serializedVersion: 2
      m_TileIndex: 6
      m_TileSpriteIndex: 6
      m_TileMatrixIndex: 3
      m_TileColorIndex: 0
      m_TileObjectToInstantiateIndex: 65535
      dummyAlignment: 0
      m_AllTileFlags: 1073741825
  - first: {x: 9, y: -3, z: 0}
    second:
      serializedVersion: 2
      m_TileIndex: 7
      m_TileSpriteIndex: 7
      m_TileMatrixIndex: 2
      m_TileColorIndex: 0
      m_TileObjectToInstantiateIndex: 65535
      dummyAlignment: 0
      m_AllTileFlags: 1073741825
  - first: {x: 1, y: -1, z: 0}
    second:
      serializedVersion: 2
      m_TileIndex: 0
      m_TileSpriteIndex: 0
      m_TileMatrixIndex: 0
      m_TileColorIndex: 0
      m_TileObjectToInstantiateIndex: 65535
      dummyAlignment: 0
      m_AllTileFlags: 1073741825
  - first: {x: 15, y: -1, z: 0}
    second:
      serializedVersion: 2
      m_TileIndex: 4
      m_TileSpriteIndex: 4
      m_TileMatrixIndex: 0
      m_TileColorIndex: 0
      m_TileObjectToInstantiateIndex: 65535
      dummyAlignment: 0
      m_AllTileFlags: 1073741825
  - first: {x: 19, y: -1, z: 0}
    second:
      serializedVersion: 2
      m_TileIndex: 5
      m_TileSpriteIndex: 5
      m_TileMatrixIndex: 1
      m_TileColorIndex: 0
      m_TileObjectToInstantiateIndex: 65535
      dummyAlignment: 0
      m_AllTileFlags: 1073741825
  - first: {x: 6, y: 0, z: 0}
    second:
      serializedVersion: 2
      m_TileIndex: 1
      m_TileSpriteIndex: 1
      m_TileMatrixIndex: 1
      m_TileColorIndex: 0
      m_TileObjectToInstantiateIndex: 65535
      dummyAlignment: 0
      m_AllTileFlags: 1073741825
  - first: {x: 9, y: 0, z: 0}
    second:
      serializedVersion: 2
      m_TileIndex: 2
      m_TileSpriteIndex: 2
      m_TileMatrixIndex: 2
      m_TileColorIndex: 0
      m_TileObjectToInstantiateIndex: 65535
      dummyAlignment: 0
      m_AllTileFlags: 1073741825
  - first: {x: 11, y: 0, z: 0}
    second:
      serializedVersion: 2
      m_TileIndex: 3
      m_TileSpriteIndex: 3
      m_TileMatrixIndex: 2
      m_TileColorIndex: 0
      m_TileObjectToInstantiateIndex: 65535
      dummyAlignment: 0
      m_AllTileFlags: 1073741825
  m_AnimatedTiles: {}
  m_TileAssetArray:
  - m_RefCount: 1
    m_Data: {fileID: 11400000, guid: 9db469beefbf13643917cd0934e1a277, type: 2}
  - m_RefCount: 1
    m_Data: {fileID: 11400000, guid: 9785d0d7c58ac2347b2f033b30dd37f1, type: 2}
  - m_RefCount: 1
    m_Data: {fileID: 11400000, guid: 0cbcbab919a841048902d9a3a9906936, type: 2}
  - m_RefCount: 1
    m_Data: {fileID: 11400000, guid: 035c430b80ac7d64d8d739dfbb7c85fc, type: 2}
  - m_RefCount: 1
    m_Data: {fileID: 11400000, guid: d66c7befd8916b44dae61cd91e5d54aa, type: 2}
  - m_RefCount: 1
    m_Data: {fileID: 11400000, guid: f2ec16fac64f08e4ab4b501dd8206087, type: 2}
  - m_RefCount: 1
    m_Data: {fileID: 11400000, guid: 63983ba60e8f3194a9980a392086fd86, type: 2}
  - m_RefCount: 1
    m_Data: {fileID: 11400000, guid: 5fcaba000a4eef94381cf294ed3c9642, type: 2}
  - m_RefCount: 1
    m_Data: {fileID: 11400000, guid: f98d3547b71c5ee4f912aa5c1ba7eb8b, type: 2}
  - m_RefCount: 1
    m_Data: {fileID: 11400000, guid: d92fdcc10633ab148acd27c87f08d7ef, type: 2}
  - m_RefCount: 1
    m_Data: {fileID: 11400000, guid: f49bf3f4192113143973e38d7cc05943, type: 2}
  - m_RefCount: 1
    m_Data: {fileID: 11400000, guid: 955e51718c4a74140968c27f8b64fbed, type: 2}
  - m_RefCount: 1
    m_Data: {fileID: 11400000, guid: da5c354930e588f41b1da93ba5c30e24, type: 2}
  - m_RefCount: 1
    m_Data: {fileID: 11400000, guid: f8c1de305ce55274fbb611ec02deaf8f, type: 2}
  - m_RefCount: 1
    m_Data: {fileID: 11400000, guid: 67b8cdedf0dfd9144b16dc8219e50ce4, type: 2}
  - m_RefCount: 1
    m_Data: {fileID: 11400000, guid: f183f2f5a32c08846878c66979bfff3e, type: 2}
  - m_RefCount: 1
    m_Data: {fileID: 11400000, guid: 533656d953c51c8439ffbba464ecf1b6, type: 2}
  - m_RefCount: 1
    m_Data: {fileID: 11400000, guid: 0c763e49ae2491e4fb51a959e7018596, type: 2}
  - m_RefCount: 1
    m_Data: {fileID: 11400000, guid: 06bd03ecacdc3744481b480d2ef23c5e, type: 2}
  - m_RefCount: 1
    m_Data: {fileID: 11400000, guid: 0561d01e8e788ea42b28a04509e836e8, type: 2}
  - m_RefCount: 1
    m_Data: {fileID: 11400000, guid: fb449775bb360bd47bce2ca769e63880, type: 2}
  - m_RefCount: 1
    m_Data: {fileID: 11400000, guid: 2ca65e8e99f8e104abfb0b11e073a4e1, type: 2}
  - m_RefCount: 1
    m_Data: {fileID: 11400000, guid: 40d805bffbd05ed4aa8c742bc15de4b9, type: 2}
  - m_RefCount: 1
    m_Data: {fileID: 11400000, guid: ab8f6f1f3ff57eb4aa04f5d1a80cff09, type: 2}
  m_TileSpriteArray:
  - m_RefCount: 1
    m_Data: {fileID: 1359545390, guid: 96e7bddc67d3dcb49a2fd8e2b1fd109b, type: 3}
  - m_RefCount: 1
    m_Data: {fileID: -1650939289, guid: 96e7bddc67d3dcb49a2fd8e2b1fd109b, type: 3}
  - m_RefCount: 1
    m_Data: {fileID: 1212501167, guid: 96e7bddc67d3dcb49a2fd8e2b1fd109b, type: 3}
  - m_RefCount: 1
    m_Data: {fileID: 1296224922, guid: 96e7bddc67d3dcb49a2fd8e2b1fd109b, type: 3}
  - m_RefCount: 1
    m_Data: {fileID: -79695801, guid: 96e7bddc67d3dcb49a2fd8e2b1fd109b, type: 3}
  - m_RefCount: 1
    m_Data: {fileID: -209411271, guid: 96e7bddc67d3dcb49a2fd8e2b1fd109b, type: 3}
  - m_RefCount: 1
    m_Data: {fileID: 1946224285, guid: 96e7bddc67d3dcb49a2fd8e2b1fd109b, type: 3}
  - m_RefCount: 1
    m_Data: {fileID: -277327399, guid: 96e7bddc67d3dcb49a2fd8e2b1fd109b, type: 3}
  - m_RefCount: 1
    m_Data: {fileID: -2130897833, guid: 96e7bddc67d3dcb49a2fd8e2b1fd109b, type: 3}
  - m_RefCount: 1
    m_Data: {fileID: 1477624891, guid: 96e7bddc67d3dcb49a2fd8e2b1fd109b, type: 3}
  - m_RefCount: 1
    m_Data: {fileID: 157183141, guid: 96e7bddc67d3dcb49a2fd8e2b1fd109b, type: 3}
  - m_RefCount: 1
    m_Data: {fileID: 1734153084, guid: 96e7bddc67d3dcb49a2fd8e2b1fd109b, type: 3}
  - m_RefCount: 1
    m_Data: {fileID: -1947130119, guid: 96e7bddc67d3dcb49a2fd8e2b1fd109b, type: 3}
  - m_RefCount: 1
    m_Data: {fileID: -494134018, guid: 96e7bddc67d3dcb49a2fd8e2b1fd109b, type: 3}
  - m_RefCount: 1
    m_Data: {fileID: 710505938, guid: 96e7bddc67d3dcb49a2fd8e2b1fd109b, type: 3}
  - m_RefCount: 1
    m_Data: {fileID: -1942666825, guid: 96e7bddc67d3dcb49a2fd8e2b1fd109b, type: 3}
  - m_RefCount: 1
    m_Data: {fileID: 1895289410, guid: 96e7bddc67d3dcb49a2fd8e2b1fd109b, type: 3}
  - m_RefCount: 1
    m_Data: {fileID: 1650619060, guid: 96e7bddc67d3dcb49a2fd8e2b1fd109b, type: 3}
  - m_RefCount: 1
    m_Data: {fileID: -1345763365, guid: 96e7bddc67d3dcb49a2fd8e2b1fd109b, type: 3}
  - m_RefCount: 1
    m_Data: {fileID: -748200525, guid: 96e7bddc67d3dcb49a2fd8e2b1fd109b, type: 3}
  - m_RefCount: 1
    m_Data: {fileID: -268858887, guid: 96e7bddc67d3dcb49a2fd8e2b1fd109b, type: 3}
  - m_RefCount: 1
    m_Data: {fileID: -1767845407, guid: 96e7bddc67d3dcb49a2fd8e2b1fd109b, type: 3}
  - m_RefCount: 1
    m_Data: {fileID: -406136983, guid: 96e7bddc67d3dcb49a2fd8e2b1fd109b, type: 3}
  - m_RefCount: 1
    m_Data: {fileID: 21300000, guid: 37cc7eb54c7706248aee232d06d5157d, type: 3}
  m_TileMatrixArray:
  - m_RefCount: 5
    m_Data:
      e00: 1
      e01: 0
      e02: 0
      e03: -0.12
      e10: 0
      e11: 1
      e12: 0
      e13: -0.12
      e20: 0
      e21: 0
      e22: 1
      e23: 0
      e30: 0
      e31: 0
      e32: 0
      e33: 1
  - m_RefCount: 9
    m_Data:
      e00: 1
      e01: 0
      e02: 0
      e03: -0.12
      e10: 0
      e11: 1
      e12: 0
      e13: 0
      e20: 0
      e21: 0
      e22: 1
      e23: 0
      e30: 0
      e31: 0
      e32: 0
      e33: 1
  - m_RefCount: 7
    m_Data:
      e00: 1
      e01: 0
      e02: 0
      e03: 0
      e10: 0
      e11: 1
      e12: 0
      e13: 0
      e20: 0
      e21: 0
      e22: 1
      e23: 0
      e30: 0
      e31: 0
      e32: 0
      e33: 1
  - m_RefCount: 3
    m_Data:
      e00: 1
      e01: 0
      e02: 0
      e03: 0
      e10: 0
      e11: 1
      e12: 0
      e13: -0.12
      e20: 0
      e21: 0
      e22: 1
      e23: 0
      e30: 0
      e31: 0
      e32: 0
      e33: 1
  m_TileColorArray:
  - m_RefCount: 24
    m_Data: {r: 1, g: 1, b: 1, a: 1}
  m_TileObjectToInstantiateArray: []
  m_AnimationFrameRate: 1
  m_Color: {r: 1, g: 1, b: 1, a: 1}
  m_Origin: {x: 0, y: -13, z: 0}
  m_Size: {x: 20, y: 14, z: 1}
  m_TileAnchor: {x: 0.5, y: 0.5, z: 0}
  m_TileOrientation: 0
  m_TileOrientationMatrix:
    e00: 1
    e01: 0
    e02: 0
    e03: 0
    e10: 0
    e11: 1
    e12: 0
    e13: 0
    e20: 0
    e21: 0
    e22: 1
    e23: 0
    e30: 0
    e31: 0
    e32: 0
    e33: 1
--- !u!483693784 &3943290205108580942
TilemapRenderer:
  m_ObjectHideFlags: 0
  m_CorrespondingSourceObject: {fileID: 0}
  m_PrefabInstance: {fileID: 0}
  m_PrefabAsset: {fileID: 0}
  m_GameObject: {fileID: 6986518651989242356}
  m_Enabled: 1
  m_CastShadows: 0
  m_ReceiveShadows: 0
  m_DynamicOccludee: 0
  m_StaticShadowCaster: 0
  m_MotionVectors: 1
  m_LightProbeUsage: 0
  m_ReflectionProbeUsage: 0
  m_RayTracingMode: 0
  m_RayTraceProcedural: 0
  m_RenderingLayerMask: 1
  m_RendererPriority: 0
  m_Materials:
  - {fileID: 10754, guid: 0000000000000000f000000000000000, type: 0}
  m_StaticBatchInfo:
    firstSubMesh: 0
    subMeshCount: 0
  m_StaticBatchRoot: {fileID: 0}
  m_ProbeAnchor: {fileID: 0}
  m_LightProbeVolumeOverride: {fileID: 0}
  m_ScaleInLightmap: 1
  m_ReceiveGI: 1
  m_PreserveUVs: 0
  m_IgnoreNormalsForChartDetection: 0
  m_ImportantGI: 0
  m_StitchLightmapSeams: 1
  m_SelectedEditorRenderState: 0
  m_MinimumChartSize: 4
  m_AutoUVMaxDistance: 0.5
  m_AutoUVMaxAngle: 89
  m_LightmapParameters: {fileID: 0}
  m_SortingLayerID: 0
  m_SortingLayer: 0
  m_SortingOrder: 0
  m_ChunkSize: {x: 32, y: 32, z: 32}
  m_ChunkCullingBounds: {x: 0.70000005, y: 0.33999997, z: 0}
  m_MaxChunkCount: 16
  m_MaxFrameAge: 16
  m_SortOrder: 0
  m_Mode: 0
  m_DetectChunkCullingBounds: 0
  m_MaskInteraction: 0
--- !u!114 &1227413413285394763
MonoBehaviour:
  m_ObjectHideFlags: 0
  m_CorrespondingSourceObject: {fileID: 0}
  m_PrefabInstance: {fileID: 0}
  m_PrefabAsset: {fileID: 0}
  m_GameObject: {fileID: 0}
  m_Enabled: 1
  m_EditorHideFlags: 0
  m_Script: {fileID: 12395, guid: 0000000000000000e000000000000000, type: 0}
  m_Name: Palette Settings
  m_EditorClassIdentifier: 
  cellSizing: 0
  m_TransparencySortMode: 0
  m_TransparencySortAxis: {x: 0, y: 0, z: 1}
